{
    "pagevars": {
        "globalVars":{
            "company-name" : "Savv-e Pty Ltd",
            "company-logo" : "img/assets/savvelogo.gif",
            "company-website":"http://www.savv-e.com.au",
            "company-address":"Level 7, 33 Chandos Street, St Leonards, NSW 2065",
            "company-telephone": "+ 61 2 9901 4522",
            "company-email"  : "info@savv-e.com.au"
        },
        "home" : {
            "welcome":{
                "images" : [
                    {"src":"img/welcome/background1.png","title":"Image title for 1","alt":"Alternate text for the image 1","desc":"Lorem ipsum dolor sit amet  for 1, consectetur adipiscing elit. Maecenas aliquet, orci vel semper ultrices, quam risus dapibus justo, Lorem ipsum dolor sit amet, consectetur adipiscing elit. Maecenas aliquet, orci vel semper ultrices, quam risus dapibus justo Extends the destination object dst by copying all of the properties from the src object(s) to dst. You can specify multiple src objects.Lorem ipsum dolor sit amet  for 4, consectetur adipiscing elit. Maecenas aliquet, orci vel semper ultrices, quam risus dapibus justo, Lorem ipsum dolor sit amet, consectetur adipiscing elit. Maecenas aliquet, orci vel semper ultrices, quam risus dapibus justo Extends the destination object dst by copying all of the properties from the src object(s) to dst. You can specify multiple src objects."},
                    {"src":"img/welcome/background2.png","title":"Image title for 2","alt":"Alternate text for the image 2","desc":"Lorem ipsum dolor sit amet  for 2, consectetur adipiscing elit. Maecenas aliquet, orci vel semper ultrices, quam risus dapibus justo, Lorem ipsum dolor sit amet, consectetur adipiscing elit. Maecenas aliquet, orci vel semper ultrices, quam risus dapibus justo Extends the destination object dst by copying all of the properties from the src object(s) to dst. You can specify multiple src objects.Lorem ipsum dolor sit amet  for 4, consectetur adipiscing elit. Maecenas aliquet, orci vel semper ultrices, quam risus dapibus justo, Lorem ipsum dolor sit amet, consectetur adipiscing elit. Maecenas aliquet, orci vel semper ultrices, quam risus dapibus justo Extends the destination object dst by copying all of the properties from the src object(s) to dst. You can specify multiple src objects."},
                    {"src":"img/welcome/background3.png","title":"Image title for 3","alt":"Alternate text for the image 3","desc":"Lorem ipsum dolor sit amet for 3, consectetur adipiscing elit. Maecenas aliquet, orci vel semper ultrices, quam risus dapibus justo, Lorem ipsum dolor sit amet, consectetur adipiscing elit. Maecenas aliquet, orci vel semper ultrices, quam risus dapibus justo Extends the destination object dst by copying all of the properties from the src object(s) to dst. You can specify multiple src objects.Lorem ipsum dolor sit amet  for 4, consectetur adipiscing elit. Maecenas aliquet, orci vel semper ultrices, quam risus dapibus justo, Lorem ipsum dolor sit amet, consectetur adipiscing elit. Maecenas aliquet, orci vel semper ultrices, quam risus dapibus justo Extends the destination object dst by copying all of the properties from the src object(s) to dst. You can specify multiple src objects."},
                    {"src":"img/welcome/background4.png","title":"Image title for 4","alt":"Alternate text for the image 4","desc":"Lorem ipsum dolor sit amet  for 4, consectetur adipiscing elit. Maecenas aliquet, orci vel semper ultrices, quam risus dapibus justo, Lorem ipsum dolor sit amet, consectetur adipiscing elit. Maecenas aliquet, orci vel semper ultrices, quam risus dapibus justo Extends the destination object dst by copying all of the properties from the src object(s) to dst. You can specify multiple src objects.Lorem ipsum dolor sit amet  for 4, consectetur adipiscing elit. Maecenas aliquet, orci vel semper ultrices, quam risus dapibus justo, Lorem ipsum dolor sit amet, consectetur adipiscing elit. Maecenas aliquet, orci vel semper ultrices, quam risus dapibus justo Extends the destination object dst by copying all of the properties from the src object(s) to dst. You can specify multiple src objects."}
                ]
            },
            "about" :{
                "users" : [
                    {
                        "id": 1,"name": "Sundar","thumbUrl": "img/users/Sundar.jpg","imgUrl": "img/users/sun-big.png","role": "In House geek","snippet": "Innocent bystander","login" : {"user" : "sundar","password":"welcome"}
                    },
                    {
                        "id": 2,"name": "Raphael","thumbUrl": "img/users/Raphael.jpg","imgUrl": "img/users/raf-big.png","role": "Savv-e Terror","snippet": "Cat behaviour consultant","login" : {"user" : "raphael","password":"welcome"}
                    },
                    {
                        "id": 3,"name": "Ken","thumbUrl": "img/users/Ken.jpg","imgUrl": "img/users/ken-big.png","role": "Cool Kid","snippet": "Fun club president","login" : {"user" : "ken","password":"welcome"}
                    },
                    {
                        "id": 4,"name": "Olivia","thumbUrl": "img/users/Olivia.jpg","imgUrl": "img/users/oli-big.png","role": "The Hulk","snippet": "Rawwwwrrrrrrr","login" : {"user" : "olivia","password":"welcome"}
                    },
                    {
                        "id": 5,"name": "Cory","thumbUrl": "img/users/Cory.jpg","imgUrl": "img/users/cory-big.png","role": "Mr.Random","snippet": "What can't be solved by politics can be solved by photoshop","login" : {"user" : "cory","password":"welcome"}
                    },
                    {
                        "id": 6,"name": "Malcolm","thumbUrl": "img/users/Malcolm.jpg","imgUrl": "img/users/mal-big.png","role": "Whiz kid","snippet": "Suspicious fisherman","login" : {"user" : "mal","password":"welcome"}
                    }
                ]
            }
        },
        "home-page-title": {
            "value": "Home page title from the json file",
            "onSearch": {
                "result": "Home page title",
                "referenced": [
                    "#home",
                    {"href": "#/home/welcome"},
                    {"sref": "#/contact"}
                ]
            }
        },
        "welcome-page-title": {
            "value": "Welcome to savv-e",
            "onSearch": {
                "result": "Welcome page title",
                "referenced": [
                    "#home/welcome"
                ]
            }
        },
        "about-page-title": {
            "value": "About Us",
            "onSearch": {
                "result": "About Us",
                "referenced": [
                    "#home/about"
                ]
            }
        }

    }
}
