[
    {
        "id": 1,
        "name": "Sundar",
        "imageUrl": "img/users/Sundar.jpg",
        "role": "In House geek",
        "snippet": "Innocent bystander",
        "login" : {
            "user" : "sundar",
            "password":"welcome"
        }
    },
    {
        "id": 2,
        "name": "Raphael",
        "imageUrl": "img/users/Raphael.jpg",
        "role": "Savv-e Terror",
        "snippet": "Cat behaviour consultant",
        "login" : {
            "user" : "raphael",
            "password":"welcome"
        }
    },
    {
        "id": 3,
        "name": "Ken",
        "imageUrl": "img/users/Ken.jpg",
        "role": "Cool Kid",
        "snippet": "Fun club president",
        "login" : {
            "user" : "ken",
            "password":"welcome"
        }
    },
    {
        "id": 4,
        "name": "Olivia",
        "imageUrl": "img/users/Olivia.jpg",
        "role": "The Hulk",
        "snippet": "Rawwwwrrrrrrr",
        "login" : {
            "user" : "olivia",
            "password":"welcome"
        }
    },
    {
        "id": 5,
        "name": "Cory",
        "imageUrl": "img/users/Cory.jpg",
        "role": "Foreign affairs",
        "snippet": "What can't be solved by politics can be solved by photoshop",
        "login" : {
            "user" : "cory",
            "password":"welcome"
        }
    },
    {
        "id": 6,
        "name": "Malcolm",
        "imageUrl": "img/users/Malcolm.jpg",
        "role": "Whiz kid",
        "snippet": "Suspicious fisherman",
        "login" : {
            "user" : "mal",
            "password":"welcome"
        }
    }
]